Introduction to sbdi4r2 • sbdi4r2
…
Quality assertions

Data quality assertions are a suite of fields that are the result of
a set of tests performed on data. We continue using the data for the
Blunt-fruited Water-starwort and get a summary of the data quality
assertions,

You can see a list of all record issues using
show_all(assertions) and see what is considered as fatal
quality issues, that is category = “Error”.

show_all(assertions)
#> # A tibble: 114 × 4
#>    id                                 description                 category type 
#>    <chr>                              <chr>                       <chr>    <chr>
#>  1 AMBIGUOUS_COLLECTION               Ambiguous collection        Warning  asse…
#>  2 AMBIGUOUS_INSTITUTION              Ambiguous institution       Warning  asse…
#>  3 BASIS_OF_RECORD_INVALID            Basis of record badly form… Warning  asse…
#>  4 biosecurityIssue                   Biosecurity issue           Error    asse…
#>  5 COLLECTION_MATCH_FUZZY             Collection match fuzzy      Warning  asse…
#>  6 COLLECTION_MATCH_NONE              Collection not matched      Warning  asse…
#>  7 CONTINENT_COUNTRY_MISMATCH         Continent country mismatch  Warning  asse…
#>  8 CONTINENT_DERIVED_FROM_COORDINATES Continent derived from coo… Warning  asse…
#>  9 CONTINENT_INVALID                  Continent invalid           Warning  asse…
#> 10 COORDINATE_INVALID                 Coordinate invalid          Warning  asse…
#> # ℹ 104 more rows
…
## where a species was not present, it will have NA: convert these to 0
sppcols <- setdiff(names(xgridded),
                   c("longitude", "latitude", 
                     "annPrec", 
                     "meanTempWarmQuart",
                     "richness"))
xgridded <- xgridded |> 
  mutate_at(sppcols, function(z) ifelse(is.na(z), 0, z))
saveRDS(xgridded, file = "vignette_fabaceae.rds")

The end result:

xgridded[, 1:10]
#> # A tibble: 100 × 10
#>    longitude latitude annPrec meanTempWarmQuart richness `Anthyllis vulneraria`
#>        <dbl>    <dbl>   <dbl>             <dbl>    <int>                  <dbl>
#>  1      15       58.8    632.              15.2       18                      1
#>  2      15       59      630.              15.4       35                      1
#>  3      15       59.2    642.              15.5       31                      1
#>  4      15       59.4    658.              15.3       32                      1
#>  5      15       59.6    682.              15.2       30                      1
#>  6      15.2     58.8    631.              15.2       21                      1
#>  7      15.2     59      627.              15.4       34                      1
#>  8      15.2     59.2    628.              15.7       56                      1
#>  9      15.2     59.4    644.              15.7       32                      1
#> 10      15.2     59.6    669.              15.4       28                      1
#> # ℹ 90 more rows
#> # ℹ 4 more variables: `Astragalus glycyphyllos` <dbl>,
#> #   `Lathyrus linifolius` <dbl>, `Lathyrus pratensis` <dbl>,
#> #   `Lathyrus sylvestris` <dbl>
…
